%YAML 1.1
%TAG !u! tag:unity3d.com,2011:
--- !u!21 &2100000
Material:
  serializedVersion: 6
  m_ObjectHideFlags: 0
  m_CorrespondingSourceObject: {fileID: 0}
  m_PrefabInstance: {fileID: 0}
  m_PrefabAsset: {fileID: 0}
  m_Name: Beam01_Add AB 3
  m_Shader: {fileID: -6465566751694194690, guid: cec1ae4b97186f94aad7e9b13c45bee9,
    type: 3}
  m_ShaderKeywords: 
  m_LightmapFlags: 4
  m_EnableInstancingVariants: 0
  m_DoubleSidedGI: 0
  m_CustomRenderQueue: -1
  stringTagMap:
    MotionVector: User
  disabledShaderPasses:
  - MOTIONVECTORS
  m_SavedProperties:
    serializedVersion: 3
    m_TexEnvs:
    - Texture2D_A1A8C8D2:
        m_Texture: {fileID: 2800000, guid: 0e43afc4cd185cd4c9a32e79f030ad0a, type: 3}
        m_Scale: {x: 1, y: 1}
        m_Offset: {x: 0, y: 0}
    m_Floats:
    - Vector1_8C6BF700: 0
    - Vector1_9E57253D: 10
    m_Colors:
    - Color_2B930761: {r: 1, g: 1, b: 1, a: 1}
    - Vector2_5C1A3497: {r: 0, g: 0, b: 0, a: 0}
    - Vector2_E9AC2388: {r: 4.21, g: 0, b: 0, a: 18}
--- !u!114 &7082742074121693217
MonoBehaviour:
  m_ObjectHideFlags: 11
  m_CorrespondingSourceObject: {fileID: 0}
  m_PrefabInstance: {fileID: 0}
  m_PrefabAsset: {fileID: 0}
  m_GameObject: {fileID: 0}
  m_Enabled: 1
  m_EditorHideFlags: 0
  m_Script: {fileID: 11500000, guid: da692e001514ec24dbc4cca1949ff7e8, type: 3}
  m_Name: 
  m_EditorClassIdentifier: 
  version: 0
